<?xml version="1.0" encoding="UTF-8" standalone="no"?>
<!-- Created with Inkscape (http://www.inkscape.org/) -->

<svg
   xmlns:dc="http://purl.org/dc/elements/1.1/"
   xmlns:cc="http://creativecommons.org/ns#"
   xmlns:rdf="http://www.w3.org/1999/02/22-rdf-syntax-ns#"
   xmlns:svg="http://www.w3.org/2000/svg"
   xmlns="http://www.w3.org/2000/svg"
   xmlns:sodipodi="http://sodipodi.sourceforge.net/DTD/sodipodi-0.dtd"
   xmlns:inkscape="http://www.inkscape.org/namespaces/inkscape"
   id="svg3036"
   version="1.1"
   inkscape:version="0.48.4 r9939"
   width="500"
   height="500"
   sodipodi:docname="tumblr.svg"
   inkscape:export-filename="/media/niccolo/Tokyo/Creating Culture/symbols/tumblr.png"
   inkscape:export-xdpi="90"
   inkscape:export-ydpi="90">
  <metadata
     id="metadata3042">
    <rdf:RDF>
      <cc:Work
         rdf:about="">
        <dc:format>image/svg+xml</dc:format>
        <dc:type
           rdf:resource="http://purl.org/dc/dcmitype/StillImage" />
        <dc:title></dc:title>
      </cc:Work>
    </rdf:RDF>
  </metadata>
  <defs
     id="defs3040" />
  <sodipodi:namedview
     pagecolor="#ffffff"
     bordercolor="#666666"
     borderopacity="1"
     objecttolerance="10"
     gridtolerance="10"
     guidetolerance="10"
     inkscape:pageopacity="0"
     inkscape:pageshadow="2"
     inkscape:window-width="1920"
     inkscape:window-height="1026"
     id="namedview3038"
     showgrid="false"
     fit-margin-top="0"
     fit-margin-left="0"
     fit-margin-right="0"
     fit-margin-bottom="0"
     inkscape:zoom="0.89166667"
     inkscape:cx="391.81097"
     inkscape:cy="186.692"
     inkscape:window-x="0"
     inkscape:window-y="27"
     inkscape:window-maximized="1"
     inkscape:current-layer="svg3036" />
  <path
     inkscape:connector-curvature="0"
     id="path3050"
     d="m 100.75793,241.41224 0,-211.862938 142.2103,0 142.21029,0 0,211.862938 0,211.86292 -142.21029,0 -142.2103,0 0,-211.86292 z"
     style="fill:#ffffff;fill-opacity:1" />
  <path
     inkscape:connector-curvature="0"
     id="path3048"
     d="M 48.764202,498.21357 C 22.014825,495.92166 2.5724428,470.05344 0.94663784,449.96664 L 0.21286407,264.48903 C -0.5338632,75.733619 0.35577251,50.343984 8.2650759,34.683001 13.694291,23.932747 23.087433,14.37866 33.474316,9.0417815 50.68225,0.2001895 72.597625,-0.6272944 265.20408,0.29209974 L 450.32641,1.1757689 c 23.59623,0.5563245 36.8665,20.2493361 44.69417,36.4871371 4.9336,10.545895 4.97412,12.277543 4.97412,212.649494 l 0,202.01702 c 0.37637,22.63864 -19.33817,46.41377 -47.30313,47.25544 l -197.49058,0.37982 c -110.6595,0.21288 -201.42398,-0.5571 -206.436788,-1.75111 z M 343.8436,429.88667 c 12.98046,-2.77576 24.95406,-6.16878 26.60802,-7.54005 2.12395,-1.76095 3.00719,-10.7359 3.00719,-30.55718 0,-32.71307 1.779,-31.28528 -27.19929,-21.8296 -23.14855,7.55338 -50.34428,8.69785 -61.80363,2.6008 -11.33327,-6.02995 -19.18284,-16.95697 -22.0302,-30.6672 -1.58284,-7.62147 -2.33566,-35.73063 -1.94646,-72.67886 l 0.63465,-60.25069 48.30395,-0.64092 c 30.75818,-0.40811 49.44385,-1.58602 51.44215,-3.24277 4.19461,-3.47772 4.45535,-54.10609 0.30002,-58.25722 -2.02007,-2.01805 -16.60499,-2.83533 -50.59782,-2.83533 -41.36872,0 -47.95175,-0.50012 -49.19525,-3.7374 -0.78962,-2.05558 -1.43564,-24.95137 -1.43564,-50.879538 l 0,-47.142136 -25.41973,0.670634 -25.41973,0.670623 -1.64686,12.995254 c -4.55511,35.944116 -28.35065,68.936973 -65.23745,90.452653 l -13.54242,7.89915 -0.67842,24.46749 c -0.49858,17.98141 0.1284,24.97889 2.36515,26.39662 1.67398,1.06102 12.82851,1.94543 24.78785,1.96533 l 21.74428,0.0362 0.72471,86.83188 c 0.70803,84.83214 0.84994,87.10326 6.16186,98.61629 8.9326,19.36053 21.68768,30.12767 44.23115,37.33748 18.27954,5.84614 21.33616,6.12122 57.94634,5.2146 23.2063,-0.57468 41.92557,-2.48106 57.89558,-5.89609 z"
     style="fill:#2c4863"
     sodipodi:nodetypes="ccssssccsccsccsssssscsssscscccsscssscsssscc" />
</svg>
